INFO: rand() returns value between 0 and 2147483647
             0 and 2147483647 included

-- seed = 1
rnd = 1804289383
rnd = 846930886
rnd = 1681692777
rnd = 1714636915
rnd = 1957747793

-- seed = 123
rnd = 128959393
rnd = 1692901013
rnd = 436085873
rnd = 748533630
rnd = 776550279

-- seed = 123
rnd = 128959393
rnd = 1692901013
rnd = 436085873
rnd = 748533630
rnd = 776550279

-- seed = 1583515960 (time now)
rnd = 1031249914
rnd = 739305184
rnd = 1555946025
rnd = 1511644349
rnd = 1538829564
